
     [
        {
            "name": "i cant able to attend  the booked appointment ? what can i do?",
            "children": [
                {
                    
                    "information": "You have an option to reschedule the apoointment . So you can reschedule it before your appointment time"
                    
                }
            ]
        },
        {
            "name": "Is there anything i need to pay before booking?",
            "children": [
                {
                   
                    "information": "Absolutely No , you don't need to pay anything while booking. This app wont charge anything . You can pay once you went to the spot"
                   
                }
            ]
        },
        {
            "name": "i cant able to attend  the booked appointment ? what can i do?",
            "children": [
                {
                    
                    "information": " You have an option to reschedule the apoointment . So you can reschedule it before your appointment time"
                  
                }
            ]
        }
    ]
