[
    {
        "_id" : "5bd81a2788b40472abe5fe89",
    "providerDetails" : {
        "country" : "India",
        "businessHours" : []
    },
    "sessionDetails" : {
        "sessions" : [ 
            {
                "enableMaxToken" : true,
                "_id" : "5bd8307a88b40472abe5fe95",
                "sessionNumber" : "0",
                "startTime" : "08:30",
                "endTime" : "11:20",
                "maxToken" : "12",
                "timeInterval" : null
            }, 
            {
                "enableMaxToken" : false,
                "_id" : "5bd8307a88b40472abe5fe94",
                "sessionNumber" : "1",
                "startTime" : "13:20",
                "endTime" : "21:30",
                "maxToken" : null,
                "timeInterval" : null
            }
        ],
        "sessionType" : "multiple"
    },
    "providerType" : "SECONDARY",
    "name" : "jive",
    "phoneNum" : null,
    "emailId" : "jive@gmail.com",
    "memberFields" : [ 
        {
            "_id" : "5bd81a2788b40472abe5fe8c",
            "refFieldNo" : "1",
            "refFieldKey" : "Qualification",
            "refFieldValue" : "mbbs"
        }, 
        {
            "_id" :"5bd81a2788b40472abe5fe8b",
            "refFieldNo" : "2",
            "refFieldKey" : "Speciality",
            "refFieldValue" : "kids"
        }, 
        {
            "_id" : "5bd81a2788b40472abe5fe8a",
            "refFieldNo" : "3",
            "refFieldKey" : "Experience",
            "refFieldValue" : "1"
        }
    ],
    "password" : "1111",
    "primaryProviderId" :"5bd813be88b40472abe5fe83",
    "__v" : 0
    },
    {
        "providerDetails": {
            "country": "India",
            "businessHours": []
        },
        "sessionDetails" : {
            "sessions" : [ 
                {
                    "enableMaxToken" : true,
                    "_id" : "5bd8307a88b40472abe5fe95",
                    "sessionNumber" : "0",
                    "startTime" : "08:30",
                    "endTime" : "11:20",
                    "maxToken" : "12",
                    "timeInterval" : null
                }, 
                {
                    "enableMaxToken" : false,
                    "_id" : "5bd8307a88b40472abe5fe94",
                    "sessionNumber" : "1",
                    "startTime" : "13:20",
                    "endTime" : "21:30",
                    "maxToken" : null,
                    "timeInterval" : null
                }
            ],
            "sessionType" : "multiple"
        },
        "providerType": "SECONDARY",
        "_id": "5bd81a5e88b40472abe5fe8d",
        "name": "jive2",
        "phoneNum": null,
        "emailId": "jive2@gmail.com",
        "memberFields": [
            {
                "_id": "5bd81a5e88b40472abe5fe90",
                "refFieldNo": "1",
                "refFieldKey": "Qualification",
                "refFieldValue": "mbbs"
            },
            {
                "_id": "5bd81a5e88b40472abe5fe8f",
                "refFieldNo": "2",
                "refFieldKey": "Speciality",
                "refFieldValue": "sugar"
            },
            {
                "_id": "5bd81a5e88b40472abe5fe8e",
                "refFieldNo": "3",
                "refFieldKey": "Experience",
                "refFieldValue": "2"
            }
        ],
        "primaryProviderId": "5bd813be88b40472abe5fe83",
        "__v": 0
    }
]