{
  "array": [{
    "clientSector": "Hospital",
    "image": "assets/imgs/icon-hospital2.png"
  }, {
    "clientSector": "Primary Care",
    "image": "assets/imgs/primarycare.png"
  },{
    "clientSector": "Longterm Care",
    "image": "assets/imgs/longtermcare.png"
  },  {
    "clientSector": "Emergency",
    "image": "assets/imgs/emergencycare.png"
  }
 
]
}